<?xml version="1.0" encoding="utf-8"?>
<!-- Generator: Adobe Illustrator 24.1.2, SVG Export Plug-In . SVG Version: 6.00 Build 0)  -->
<svg version="1.1" id="Layer_1" xmlns="http://www.w3.org/2000/svg" xmlns:xlink="http://www.w3.org/1999/xlink" x="0px" y="0px"
	 viewBox="0 0 1390.4 227.9" style="enable-background:new 0 0 1390.4 227.9;" xml:space="preserve">
<g>
	<g>
		<g>
			<path d="M866.3,82.3c0,0.1,0,140.2,0,140.2c0,1.9-1.3,3.8-3.1,3.8h-19c-11.1,0-20.4-9.5-20.4-20.7l0-122.7
				c-0.8-26.5-19.5-40.6-42.4-40.5c-22.9,0-41.5,14.7-42.2,41.2l0,139.2c0,1.9-1.3,3.6-3.2,3.6h-19c-11.1,0-20.4-9.9-20.4-21.2
				l0-122.1c-0.8-26.5-19.5-40.6-42.4-40.5c-22.9,0-41.5,14.1-42.2,40.7l0,139.7c0,1.9-1.3,3.4-3.2,3.4l-19,0
				c-11.1,0-20.3-9.1-20.3-20.4c0,0,0-123,0-123.1c1.1-53.9,38.6-82.5,84.7-82.6c25.3,0,48.1,8.5,63.6,25.2
				C733.3,8.7,756,0.1,781.4,0.1C827.5,0,865,28.5,866.3,82.3z"/>
			<path d="M1304.7,223.6c0.8,1.1-0.1,2.6-1.4,2.6l-34,0.1c-8,0-15.7-1-22.6-10.6l-34.8-51.3c-2.7-4-6.7-8.8-12.3-8.8
				s-9.6,4.8-12.3,8.8l-34.8,51.3c-6.9,9.7-14.7,10.6-22.6,10.6h-34c-1.4,0-2.2-1.6-1.4-2.7l67.1-99c2-2.9,2.9-6.2,2.9-9.6
				c0-3.3-0.9-6.7-2.9-9.6l-67.1-99c-0.8-1.1,0.1-2.6,1.4-2.6l34,0c8,0,15.7,0.9,22.6,10.6l34.8,51.3c2.7,4,6.7,8.8,12.3,8.8
				s9.6-4.8,12.3-8.8l34.8-51.3c6.9-9.7,14.7-10.6,22.6-10.6h34c1.4,0,2.2,1.5,1.4,2.6l-67.1,99c-2,2.9-2.9,6.2-2.9,9.6
				c0,3.3,0.9,6.7,2.9,9.6L1304.7,223.6z"/>
			<path d="M1081.1,3.7l-13.4,0c-7.3,0-14.1,3.9-17.8,10.2l-5,8.6c-19.3-16.2-44.2-22.5-64.9-22.5c-62.4,0-103.9,44.1-103.9,113.9
				c0,70.4,42.2,113.9,103.4,113.9c23.4,0,46.7-7.8,61.5-19.8c0.8,10.6,9.7,18.2,20.5,18.2h19.4c1.9,0,3.4-0.8,3.4-2.7l0.1-216.4
				C1084.5,5.3,1083,3.7,1081.1,3.7z M979.2,185.5c-35.5,0-61.5-26.4-61.5-71.5c0-45.1,26-71.5,61.5-71.5s61.5,26.4,61.5,71.5
				C1040.7,159.1,1014.7,185.5,979.2,185.5z"/>
		</g>
	</g>
	<g>
		<polygon points="101.6,86.5 62.3,86.5 62.3,3.7 0,3.7 0,226.3 62.3,226.3 62.3,139.9 101.6,139.9 101.6,226.3 162,226.3 162,3.7 
			101.6,3.7 		"/>
		<path d="M439,0c-62.3,0-94.1,45.8-102,64.3c0.1-27.8-27.3-60.6-59.3-60.6H174.6v222.6l96.2,0c38.8,0,66.4-33.6,66.4-62.4
			c8.9,18.1,39.6,63.5,101.8,63.5c62.3,0,113.1-51.8,113.1-114.2C552.1,49.5,501.4,0,439,0z M262.7,174.4h-30.6v-37.6h30.6
			c8.9,0,15.9,8.8,15.9,18.8C278.6,165.6,271.6,174.4,262.7,174.4z M262.8,90.9h-30.6V53.3h30.6c8.9,0,15.9,8.8,15.9,18.8
			C278.7,82.1,271.7,90.9,262.8,90.9z M303.5,113.2c7-0.9,18.7-8.9,22.8-14c-1.4,6.3-1.6,24.7,0.1,31
			C321.8,123,310.7,114.1,303.5,113.2z M439.1,169.9c-31.3,0-56.6-25.4-56.6-56.7c0-31.3,25.4-56.6,56.6-56.6
			c31.3,0,56.7,25.4,56.7,56.6C495.7,144.5,470.4,169.9,439.1,169.9z"/>
		<path d="M439.1,68.7c-24.6,0-44.5,19.9-44.5,44.5c0,24.6,19.9,44.5,44.5,44.5c24.6,0,44.5-19.9,44.5-44.5
			C483.6,88.6,463.7,68.7,439.1,68.7z"/>
	</g>
</g>
<g>
	<polygon points="1310.4,11.5 1322.1,11.5 1322.1,45 1331.5,45 1331.5,11.5 1343.4,11.5 1343.4,3.7 1310.4,3.7 	"/>
	<polygon points="1381,3.7 1369.8,22 1358.6,3.7 1349.2,3.7 1349.2,45 1358.6,45 1358.6,21 1369.3,38.5 1370.3,38.5 1381,21 
		1381,45 1390.4,45 1390.4,3.7 	"/>
</g>
</svg>
